13:41:13 **** Incremental Build of configuration Debug for project inputSide ****
make -j8 all 
arm-none-eabi-gcc -mcpu=cortex-m3 -g3 -c -x assembler-with-cpp -MMD -MP -MF"Core/Src/conv.d" -MT"Core/Src/conv.o" --specs=nano.specs -mfloat-abi=soft -mthumb -o "Core/Src/conv.o" "../Core/Src/conv.s"
arm-none-eabi-gcc -o "inputSide.elf" @"objects.list"   -mcpu=cortex-m3 -T"/home/matias/Escritorio/td2/practicaAssembler/inputSide/STM32F103C8TX_FLASH.ld" --specs=nosys.specs -Wl,-Map="inputSide.map" -Wl,--gc-sections -static --specs=nano.specs -mfloat-abi=soft -mthumb -Wl,--start-group -lc -lm -Wl,--end-group
Finished building target: inputSide.elf
 
arm-none-eabi-objdump -h -S  inputSide.elf  > "inputSide.list"
arm-none-eabi-objcopy  -O binary  inputSide.elf  "inputSide.bin"
arm-none-eabi-size   inputSide.elf 
Finished building: inputSide.bin
 
   text	   data	    bss	    dec	    hex	filename
   3636	     20	   1572	   5228	   146c	inputSide.elf
Finished building: default.size.stdout
 
Finished building: inputSide.list
 

13:41:14 Build Finished. 0 errors, 0 warnings. (took 1s.617ms)

